{
    "appName": "Keanu on Butter Box",
    "appNames": {},
    "productLink": "REPLACEME.lan",
    "defaultServer": "http://REPLACEME.lan",
    "rtl": false,
    "analytics": {
        "enabled": false
    }
}